{
"one year ago": "hace un año|hace 1 año",
"given": "dado",
"spend (money)": "gastar",
"ingenious": "ingenioso",
"aqcuire": "adquirir",
"paw (animal leg)": "la pata|pata",
"whenever I can": "siempre que puedo",
"to dare (challenge)": "retar",
"to miss (2)": "extrañar|echar de menos",
"congratulations": "enhorabuena",
"to squeeze": "aprentar",
"gargoyle": "gargola",
"what is it for?": "para que sierve|para que sierve?",
"share": "compartir",
"medical kit": "el botiquín|botiquín",
"scuba diving": "busear",
"swimming glasses (2)": "gafas aquaticas|gafas de natación",
"register for the competition": "apuntarse a un concurso",
"keep awake": "desvelarse|desvelar",
"to dare to (be bold)": "atreverse a",
"to notice that (2)": "darse cuenta de|fijarse en",
"to find out": "averiguar",
"from Malaga": "malagueño",
"teacher (formal)": "el docente|la docente|docente",
"fraud, rip off": "estafa",
"therefore": "por lo tanto",
"to let go, to drop": "soltar",
"popcorn": "las palomitas|palomitas",
"to blackmail": "chantajear",
"to grow found of, to get attached": "encariñarse con",
"revenge": "la venganza|venganza",
"I'll take care of it!": "yo me encargo!|yo me encargo",
"soon": "pronto",
"be up to date, be informed": "estar al tanto|al tanto",
"to have guts to": "tener agallas para",
"to grasp, to grab": "aferrar",
"bowl (2)": "tazón|el tazón|el bol|bol",
"light (not havy)": "ligero",
"warehouse": "el almacén|almacén"
}
